EESchema Schematic File Version 2
LIBS:ketos3d-rescue
LIBS:power
LIBS:device
LIBS:switches
LIBS:relays
LIBS:motors
LIBS:transistors
LIBS:conn
LIBS:linear
LIBS:regul
LIBS:74xx
LIBS:cmos4000
LIBS:adc-dac
LIBS:memory
LIBS:xilinx
LIBS:microcontrollers
LIBS:dsp
LIBS:microchip
LIBS:analog_switches
LIBS:motorola
LIBS:texas
LIBS:intel
LIBS:audio
LIBS:interface
LIBS:digital-audio
LIBS:philips
LIBS:display
LIBS:cypress
LIBS:siliconi
LIBS:opto
LIBS:atmel
LIBS:contrib
LIBS:valves
LIBS:cpuboard
LIBS:ap1501
LIBS:prtr5v0u2x
LIBS:pololu_a4988
LIBS:ketos3d-cache
EELAYER 25 0
EELAYER END
$Descr A4 11693 8268
encoding utf-8
Sheet 1 1
Title "Ketos3D Baseboard"
Date ""
Rev ""
Comp ""
Comment1 ""
Comment2 ""
Comment3 ""
Comment4 ""
$EndDescr
$Comp
L CPUboard CPU1
U 1 1 5B0563DF
P 5100 5700
F 0 "CPU1" H 5100 7450 60  0000 C CNN
F 1 "CPUboard" H 5100 3950 60  0000 C CNN
F 2 "CPUboard:CPUboard" H 5100 5700 60  0001 C CNN
F 3 "" H 5100 5700 60  0001 C CNN
	1    5100 5700
	1    0    0    -1  
$EndComp
$Comp
L Barrel_Jack J?
U 1 1 5B0564C5
P 2650 1350
F 0 "J?" H 2650 1560 50  0000 C CNN
F 1 "Barrel_Jack" H 2650 1175 50  0001 C CNN
F 2 "Connectors:Barrel_Jack_CUI_PJ-102AH" H 2700 1310 50  0001 C CNN
F 3 "" H 2700 1310 50  0001 C CNN
	1    2650 1350
	1    0    0    -1  
$EndComp
$Comp
L Micro_SD_Card_Det J?
U 1 1 5B056D40
P 1450 6950
F 0 "J?" H 800 7650 50  0000 C CNN
F 1 "Micro_SD_Card_Det" H 2100 7650 50  0000 R CNN
F 2 "" H 3500 7650 50  0001 C CNN
F 3 "" H 1450 7050 50  0001 C CNN
	1    1450 6950
	-1   0    0    1   
$EndComp
$Comp
L USB_B J?
U 1 1 5B056DBD
P 900 1250
F 0 "J?" H 700 1700 50  0000 L CNN
F 1 "USB_B" H 700 1600 50  0000 L CNN
F 2 "" H 1050 1200 50  0001 C CNN
F 3 "" H 1050 1200 50  0001 C CNN
	1    900  1250
	1    0    0    -1  
$EndComp
$Comp
L Conn_01x04_Male J?
U 1 1 5B056E28
P 3400 1350
F 0 "J?" H 3400 1550 50  0000 C CNN
F 1 "POWER SW" H 3400 1050 50  0000 C CNN
F 2 "" H 3400 1350 50  0001 C CNN
F 3 "" H 3400 1350 50  0001 C CNN
	1    3400 1350
	-1   0    0    -1  
$EndComp
$Comp
L Conn_02x08_Odd_Even J?
U 1 1 5B056EB3
P 10350 5200
F 0 "J?" H 10400 5600 50  0000 C CNN
F 1 "EXTRUDER" H 10400 4700 50  0000 C CNN
F 2 "" H 10350 5200 50  0001 C CNN
F 3 "" H 10350 5200 50  0001 C CNN
	1    10350 5200
	1    0    0    -1  
$EndComp
$Comp
L AP1501 U?
U 1 1 5B073C59
P 4500 1500
F 0 "U?" H 4500 1350 60  0000 C CNN
F 1 "AP1501" H 4500 1550 60  0000 C CNN
F 2 "" H 4500 1500 60  0001 C CNN
F 3 "" H 4500 1500 60  0001 C CNN
	1    4500 1500
	1    0    0    -1  
$EndComp
$Comp
L L L?
U 1 1 5B073F4D
P 5300 1500
F 0 "L?" V 5250 1500 50  0000 C CNN
F 1 "100µH" V 5375 1500 50  0000 C CNN
F 2 "" H 5300 1500 50  0001 C CNN
F 3 "" H 5300 1500 50  0001 C CNN
	1    5300 1500
	0    1    1    0   
$EndComp
$Comp
L CP C?
U 1 1 5B0740D0
P 3700 1650
F 0 "C?" H 3725 1750 50  0000 L CNN
F 1 "470µF" H 3725 1550 50  0000 L CNN
F 2 "" H 3738 1500 50  0001 C CNN
F 3 "" H 3700 1650 50  0001 C CNN
	1    3700 1650
	1    0    0    -1  
$EndComp
$Comp
L CP C?
U 1 1 5B074173
P 5550 1750
F 0 "C?" H 5575 1850 50  0000 L CNN
F 1 "220µF" H 5575 1650 50  0000 L CNN
F 2 "" H 5588 1600 50  0001 C CNN
F 3 "" H 5550 1750 50  0001 C CNN
	1    5550 1750
	1    0    0    -1  
$EndComp
$Comp
L D_Schottky D?
U 1 1 5B0741D0
P 5050 1750
F 0 "D?" H 5050 1850 50  0000 C CNN
F 1 "D_Schottky" H 5050 1650 50  0001 C CNN
F 2 "" H 5050 1750 50  0001 C CNN
F 3 "" H 5050 1750 50  0001 C CNN
	1    5050 1750
	0    1    1    0   
$EndComp
$Comp
L FINDER-30.22 K?
U 1 1 5B07423F
P 7650 1650
F 0 "K?" H 8500 1800 50  0000 L CNN
F 1 "FINDER-30.22" H 8500 1700 50  0001 L CNN
F 2 "Relays_THT:Relay_DPDT_Finder_40.52" H 9200 1620 50  0001 C CNN
F 3 "" H 7650 1650 50  0001 C CNN
	1    7650 1650
	0    1    -1   0   
$EndComp
NoConn ~ 2950 1350
$Comp
L VDD #PWR?
U 1 1 5B07463A
P 3700 950
F 0 "#PWR?" H 3700 800 50  0001 C CNN
F 1 "VDD" H 3700 1100 50  0000 C CNN
F 2 "" H 3700 950 50  0001 C CNN
F 3 "" H 3700 950 50  0001 C CNN
	1    3700 950 
	1    0    0    -1  
$EndComp
$Comp
L GND #PWR?
U 1 1 5B07480B
P 4700 1950
F 0 "#PWR?" H 4700 1700 50  0001 C CNN
F 1 "GND" H 4700 1800 50  0000 C CNN
F 2 "" H 4700 1950 50  0001 C CNN
F 3 "" H 4700 1950 50  0001 C CNN
	1    4700 1950
	1    0    0    -1  
$EndComp
$Comp
L +5V #PWR?
U 1 1 5B074E50
P 5550 950
F 0 "#PWR?" H 5550 800 50  0001 C CNN
F 1 "+5V" H 5550 1090 50  0000 C CNN
F 2 "" H 5550 950 50  0001 C CNN
F 3 "" H 5550 950 50  0001 C CNN
	1    5550 950 
	1    0    0    -1  
$EndComp
$Comp
L LM1117-3.3 U?
U 1 1 5B07542E
P 6350 1500
F 0 "U?" H 6200 1625 50  0000 C CNN
F 1 "LM1117-3.3" H 6350 1625 50  0000 L CNN
F 2 "" H 6350 1500 50  0001 C CNN
F 3 "" H 6350 1500 50  0001 C CNN
	1    6350 1500
	1    0    0    -1  
$EndComp
$Comp
L C C?
U 1 1 5B0755FA
P 5950 1750
F 0 "C?" H 5975 1850 50  0000 L CNN
F 1 "10µF" H 5975 1650 50  0000 L CNN
F 2 "" H 5988 1600 50  0001 C CNN
F 3 "" H 5950 1750 50  0001 C CNN
	1    5950 1750
	1    0    0    -1  
$EndComp
$Comp
L +3.3V #PWR?
U 1 1 5B075691
P 6750 950
F 0 "#PWR?" H 6750 800 50  0001 C CNN
F 1 "+3.3V" H 6750 1090 50  0000 C CNN
F 2 "" H 6750 950 50  0001 C CNN
F 3 "" H 6750 950 50  0001 C CNN
	1    6750 950 
	1    0    0    -1  
$EndComp
$Comp
L C C?
U 1 1 5B0757CF
P 6750 1750
F 0 "C?" H 6775 1850 50  0000 L CNN
F 1 "10µF" H 6775 1650 50  0000 L CNN
F 2 "" H 6788 1600 50  0001 C CNN
F 3 "" H 6750 1750 50  0001 C CNN
	1    6750 1750
	1    0    0    -1  
$EndComp
$Comp
L Buzzer BZ?
U 1 1 5B07C730
P 3450 3050
F 0 "BZ?" H 3600 3100 50  0000 L CNN
F 1 "Buzzer" H 3600 3000 50  0000 L CNN
F 2 "" V 3425 3150 50  0001 C CNN
F 3 "" V 3425 3150 50  0001 C CNN
	1    3450 3050
	1    0    0    -1  
$EndComp
$Comp
L +3.3V #PWR?
U 1 1 5B07C83D
P 2950 2850
F 0 "#PWR?" H 2950 2700 50  0001 C CNN
F 1 "+3.3V" H 2950 2990 50  0000 C CNN
F 2 "" H 2950 2850 50  0001 C CNN
F 3 "" H 2950 2850 50  0001 C CNN
	1    2950 2850
	1    0    0    -1  
$EndComp
$Comp
L R R?
U 1 1 5B07C871
P 3100 2950
F 0 "R?" V 3180 2950 50  0000 C CNN
F 1 "18" V 3100 2950 50  0000 C CNN
F 2 "" V 3030 2950 50  0001 C CNN
F 3 "" H 3100 2950 50  0001 C CNN
	1    3100 2950
	0    1    1    0   
$EndComp
$Comp
L Q_NPN_BCE Q?
U 1 1 5B07C9F5
P 3150 3350
F 0 "Q?" H 3350 3400 50  0000 L CNN
F 1 "Q_NPN_BCE" H 3350 3300 50  0001 L CNN
F 2 "" H 3350 3450 50  0001 C CNN
F 3 "" H 3150 3350 50  0001 C CNN
	1    3150 3350
	1    0    0    -1  
$EndComp
Text GLabel 2850 3350 0    60   Input ~ 0
BUZZER
$Comp
L GND #PWR?
U 1 1 5B07CB39
P 3250 3650
F 0 "#PWR?" H 3250 3400 50  0001 C CNN
F 1 "GND" H 3250 3500 50  0000 C CNN
F 2 "" H 3250 3650 50  0001 C CNN
F 3 "" H 3250 3650 50  0001 C CNN
	1    3250 3650
	1    0    0    -1  
$EndComp
Text GLabel 4150 4350 0    60   Input ~ 0
BUZZER
$Comp
L D D?
U 1 1 5B07CDD6
P 7650 2150
F 0 "D?" H 7650 2250 50  0000 C CNN
F 1 "D" H 7650 2050 50  0001 C CNN
F 2 "" H 7650 2150 50  0001 C CNN
F 3 "" H 7650 2150 50  0001 C CNN
	1    7650 2150
	1    0    0    1   
$EndComp
$Comp
L Q_NPN_BCE Q?
U 1 1 5B07CE2F
P 8500 1750
F 0 "Q?" H 8700 1800 50  0000 L CNN
F 1 "Q_NPN_BCE" H 8700 1700 50  0001 L CNN
F 2 "" H 8700 1850 50  0001 C CNN
F 3 "" H 8500 1750 50  0001 C CNN
	1    8500 1750
	0    -1   1    0   
$EndComp
$Comp
L GND #PWR?
U 1 1 5B07D217
P 8800 2150
F 0 "#PWR?" H 8800 1900 50  0001 C CNN
F 1 "GND" H 8800 2000 50  0000 C CNN
F 2 "" H 8800 2150 50  0001 C CNN
F 3 "" H 8800 2150 50  0001 C CNN
	1    8800 2150
	1    0    0    -1  
$EndComp
Text GLabel 8500 1450 1    60   Input ~ 0
MOT_PWR
$Comp
L C C?
U 1 1 5B07D445
P 8650 1550
F 0 "C?" H 8675 1650 50  0000 L CNN
F 1 "100nF" H 8400 1650 50  0000 L CNN
F 2 "" H 8688 1400 50  0001 C CNN
F 3 "" H 8650 1550 50  0001 C CNN
	1    8650 1550
	0    1    1    0   
$EndComp
$Comp
L VDD #PWR?
U 1 1 5B07E4E3
P 7250 950
F 0 "#PWR?" H 7250 800 50  0001 C CNN
F 1 "VDD" H 7250 1100 50  0000 C CNN
F 2 "" H 7250 950 50  0001 C CNN
F 3 "" H 7250 950 50  0001 C CNN
	1    7250 950 
	1    0    0    -1  
$EndComp
NoConn ~ 7950 1150
NoConn ~ 7950 1550
$Comp
L Q_NMOS_GDS Q?
U 1 1 5B07E95C
P 10300 1850
F 0 "Q?" H 10500 1900 50  0000 L CNN
F 1 "Q_NMOS_GDS" H 10500 1800 50  0001 L CNN
F 2 "" H 10500 1950 50  0001 C CNN
F 3 "" H 10300 1850 50  0001 C CNN
	1    10300 1850
	1    0    0    -1  
$EndComp
$Comp
L TLP291 U?
U 1 1 5B07EA01
P 9450 1300
F 0 "U?" H 9250 1500 50  0000 L CNN
F 1 "TLP291" H 9450 1500 50  0001 L CNN
F 2 "Housings_DIP:DIP-4_W7.62mm_SMD" H 9250 1100 50  0001 L CIN
F 3 "" H 9450 1300 50  0001 L CNN
	1    9450 1300
	1    0    0    -1  
$EndComp
$Comp
L LED D?
U 1 1 5B07EA52
P 9950 1850
F 0 "D?" H 9950 1950 50  0000 C CNN
F 1 "LED" H 9950 1750 50  0000 C CNN
F 2 "" H 9950 1850 50  0001 C CNN
F 3 "" H 9950 1850 50  0001 C CNN
	1    9950 1850
	-1   0    0    -1  
$EndComp
$Comp
L R R?
U 1 1 5B07EADB
P 9800 1600
F 0 "R?" V 9880 1600 50  0000 C CNN
F 1 "2k" V 9800 1600 50  0000 C CNN
F 2 "" V 9730 1600 50  0001 C CNN
F 3 "" H 9800 1600 50  0001 C CNN
	1    9800 1600
	-1   0    0    1   
$EndComp
Text GLabel 10400 1550 1    60   Input ~ 0
HOTEND-
Text GLabel 9050 1200 0    60   Input ~ 0
HOTPWM
Text GLabel 4150 5250 0    60   Input ~ 0
HOTPWM
Text GLabel 9950 5500 0    60   Input ~ 0
HOTEND+
Text GLabel 9950 5400 0    60   Input ~ 0
HOTEND-
Text GLabel 10250 1050 3    60   Input ~ 0
HOTEND+
$Comp
L Conn_01x10_Female J?
U 1 1 5B0E8DBA
P 10850 1450
F 0 "J?" H 10850 1950 50  0000 C CNN
F 1 "PLATFORM HEATER" V 10900 1450 50  0000 C CNN
F 2 "" H 10850 1450 50  0001 C CNN
F 3 "" H 10850 1450 50  0001 C CNN
	1    10850 1450
	1    0    0    1   
$EndComp
$Comp
L PRTR5V0U2X D?
U 1 1 5B0E9E65
P 1750 1600
F 0 "D?" H 1750 1800 60  0000 C CNN
F 1 "PRTR5V0U2X" H 1750 1450 60  0000 C CNN
F 2 "" H 1800 1750 60  0001 C CNN
F 3 "" H 1800 1750 60  0001 C CNN
	1    1750 1600
	0    1    1    0   
$EndComp
$Comp
L GND #PWR?
U 1 1 5B0EA0DB
P 2000 1050
F 0 "#PWR?" H 2000 800 50  0001 C CNN
F 1 "GND" H 2000 900 50  0000 C CNN
F 2 "" H 2000 1050 50  0001 C CNN
F 3 "" H 2000 1050 50  0001 C CNN
	1    2000 1050
	1    0    0    -1  
$EndComp
$Comp
L +5V #PWR?
U 1 1 5B0EA125
P 2000 1900
F 0 "#PWR?" H 2000 1750 50  0001 C CNN
F 1 "+5V" H 2000 2040 50  0000 C CNN
F 2 "" H 2000 1900 50  0001 C CNN
F 3 "" H 2000 1900 50  0001 C CNN
	1    2000 1900
	1    0    0    -1  
$EndComp
$Comp
L C C?
U 1 1 5B0EA2D0
P 1450 1050
F 0 "C?" H 1475 1150 50  0000 L CNN
F 1 "100nF" H 1475 950 50  0000 L CNN
F 2 "" H 1488 900 50  0001 C CNN
F 3 "" H 1450 1050 50  0001 C CNN
	1    1450 1050
	0    1    1    0   
$EndComp
Text GLabel 1250 1850 3    60   Input ~ 0
USBD+
Text GLabel 1350 1850 3    60   Input ~ 0
USBD-
Text GLabel 6050 5450 2    60   Input ~ 0
USBD-
Text GLabel 6050 5650 2    60   Input ~ 0
USBD+
$Comp
L R R?
U 1 1 5B0EBB6A
P 1250 1600
F 0 "R?" V 1150 1600 50  0000 C CNN
F 1 "18Ω" V 1250 1600 50  0000 C CNN
F 2 "" V 1180 1600 50  0001 C CNN
F 3 "" H 1250 1600 50  0001 C CNN
	1    1250 1600
	1    0    0    -1  
$EndComp
$Comp
L R R?
U 1 1 5B0EBC24
P 1350 1600
F 0 "R?" V 1430 1600 50  0000 C CNN
F 1 "18Ω" V 1350 1600 50  0000 C CNN
F 2 "" V 1280 1600 50  0001 C CNN
F 3 "" H 1350 1600 50  0001 C CNN
	1    1350 1600
	1    0    0    -1  
$EndComp
Text Notes 1250 650  2    60   ~ 0
USB INTERFACE\n
Text Notes 3100 650  2    60   ~ 0
POWER SUPPLY
Text GLabel 4150 5150 0    60   Input ~ 0
MOT_PWR
$Comp
L +5V #PWR?
U 1 1 5B0F28E4
P 7250 1750
F 0 "#PWR?" H 7250 1600 50  0001 C CNN
F 1 "+5V" H 7250 1890 50  0000 C CNN
F 2 "" H 7250 1750 50  0001 C CNN
F 3 "" H 7250 1750 50  0001 C CNN
	1    7250 1750
	1    0    0    -1  
$EndComp
Text Notes 7850 650  2    60   ~ 0
POWER CONTROL
$Comp
L Conn_01x03_Male J?
U 1 1 5B0F682D
P 11000 2800
F 0 "J?" H 11000 3000 50  0000 C CNN
F 1 "Y-LIMIT" V 10900 2800 50  0000 C CNN
F 2 "" H 11000 2800 50  0001 C CNN
F 3 "" H 11000 2800 50  0001 C CNN
	1    11000 2800
	-1   0    0    1   
$EndComp
$Comp
L R R?
U 1 1 5B0F704C
P 10250 2900
F 0 "R?" V 10330 2900 50  0000 C CNN
F 1 "100" V 10250 2900 50  0000 C CNN
F 2 "" V 10180 2900 50  0001 C CNN
F 3 "" H 10250 2900 50  0001 C CNN
	1    10250 2900
	0    1    1    0   
$EndComp
$Comp
L C C?
U 1 1 5B0F7113
P 10500 2800
F 0 "C?" H 10525 2900 50  0000 L CNN
F 1 "CX" H 10525 2700 50  0000 L CNN
F 2 "" H 10538 2650 50  0001 C CNN
F 3 "" H 10500 2800 50  0001 C CNN
	1    10500 2800
	0    1    1    0   
$EndComp
$Comp
L R R?
U 1 1 5B0F71CA
P 10250 2700
F 0 "R?" V 10330 2700 50  0000 C CNN
F 1 "10k" V 10250 2700 50  0000 C CNN
F 2 "" V 10180 2700 50  0001 C CNN
F 3 "" H 10250 2700 50  0001 C CNN
	1    10250 2700
	0    1    1    0   
$EndComp
$Comp
L GND #PWR?
U 1 1 5B0F79B5
P 10750 4200
F 0 "#PWR?" H 10750 3950 50  0001 C CNN
F 1 "GND" H 10750 4050 50  0000 C CNN
F 2 "" H 10750 4200 50  0001 C CNN
F 3 "" H 10750 4200 50  0001 C CNN
	1    10750 4200
	1    0    0    -1  
$EndComp
$Comp
L +3.3V #PWR?
U 1 1 5B0F7F09
P 10700 2600
F 0 "#PWR?" H 10700 2450 50  0001 C CNN
F 1 "+3.3V" H 10700 2740 50  0000 C CNN
F 2 "" H 10700 2600 50  0001 C CNN
F 3 "" H 10700 2600 50  0001 C CNN
	1    10700 2600
	1    0    0    -1  
$EndComp
Text GLabel 10000 2900 0    60   Input ~ 0
Y-LIMIT
$Comp
L Conn_01x03_Male J?
U 1 1 5B0F8913
P 11000 3200
F 0 "J?" H 11000 3400 50  0000 C CNN
F 1 "Z-LIMIT" V 10900 3200 50  0000 C CNN
F 2 "" H 11000 3200 50  0001 C CNN
F 3 "" H 11000 3200 50  0001 C CNN
	1    11000 3200
	-1   0    0    1   
$EndComp
$Comp
L R R?
U 1 1 5B0F8919
P 10250 3300
F 0 "R?" V 10330 3300 50  0000 C CNN
F 1 "100" V 10250 3300 50  0000 C CNN
F 2 "" V 10180 3300 50  0001 C CNN
F 3 "" H 10250 3300 50  0001 C CNN
	1    10250 3300
	0    1    1    0   
$EndComp
$Comp
L C C?
U 1 1 5B0F891F
P 10500 3200
F 0 "C?" H 10525 3300 50  0000 L CNN
F 1 "CX" H 10525 3100 50  0000 L CNN
F 2 "" H 10538 3050 50  0001 C CNN
F 3 "" H 10500 3200 50  0001 C CNN
	1    10500 3200
	0    1    1    0   
$EndComp
$Comp
L R R?
U 1 1 5B0F8925
P 10250 3100
F 0 "R?" V 10330 3100 50  0000 C CNN
F 1 "10k" V 10250 3100 50  0000 C CNN
F 2 "" V 10180 3100 50  0001 C CNN
F 3 "" H 10250 3100 50  0001 C CNN
	1    10250 3100
	0    1    1    0   
$EndComp
Text GLabel 10000 3300 0    60   Input ~ 0
Z-LIMIT
$Comp
L Conn_01x03_Male J?
U 1 1 5B0F8A27
P 11000 3600
F 0 "J?" H 11000 3800 50  0000 C CNN
F 1 "X-LIMIT" V 10900 3600 50  0000 C CNN
F 2 "" H 11000 3600 50  0001 C CNN
F 3 "" H 11000 3600 50  0001 C CNN
	1    11000 3600
	-1   0    0    1   
$EndComp
$Comp
L R R?
U 1 1 5B0F8A2D
P 10250 3700
F 0 "R?" V 10330 3700 50  0000 C CNN
F 1 "100" V 10250 3700 50  0000 C CNN
F 2 "" V 10180 3700 50  0001 C CNN
F 3 "" H 10250 3700 50  0001 C CNN
	1    10250 3700
	0    1    1    0   
$EndComp
$Comp
L C C?
U 1 1 5B0F8A33
P 10500 3600
F 0 "C?" H 10525 3700 50  0000 L CNN
F 1 "CX" H 10525 3500 50  0000 L CNN
F 2 "" H 10538 3450 50  0001 C CNN
F 3 "" H 10500 3600 50  0001 C CNN
	1    10500 3600
	0    1    1    0   
$EndComp
$Comp
L R R?
U 1 1 5B0F8A39
P 10250 3500
F 0 "R?" V 10330 3500 50  0000 C CNN
F 1 "10k" V 10250 3500 50  0000 C CNN
F 2 "" V 10180 3500 50  0001 C CNN
F 3 "" H 10250 3500 50  0001 C CNN
	1    10250 3500
	0    1    1    0   
$EndComp
Text GLabel 10000 3700 0    60   Input ~ 0
X-LIMIT
$Comp
L Conn_01x03_Male J?
U 1 1 5B0F8C71
P 11000 4000
F 0 "J?" H 11000 4200 50  0000 C CNN
F 1 "DOORCHECK" V 10900 4000 50  0000 C CNN
F 2 "" H 11000 4000 50  0001 C CNN
F 3 "" H 11000 4000 50  0001 C CNN
	1    11000 4000
	-1   0    0    1   
$EndComp
$Comp
L R R?
U 1 1 5B0F8C77
P 10250 4100
F 0 "R?" V 10330 4100 50  0000 C CNN
F 1 "100" V 10250 4100 50  0000 C CNN
F 2 "" V 10180 4100 50  0001 C CNN
F 3 "" H 10250 4100 50  0001 C CNN
	1    10250 4100
	0    1    1    0   
$EndComp
$Comp
L C C?
U 1 1 5B0F8C7D
P 10500 4000
F 0 "C?" H 10525 4100 50  0000 L CNN
F 1 "100nF" H 10525 3900 50  0000 L CNN
F 2 "" H 10538 3850 50  0001 C CNN
F 3 "" H 10500 4000 50  0001 C CNN
	1    10500 4000
	0    1    1    0   
$EndComp
$Comp
L R R?
U 1 1 5B0F8C83
P 10250 3900
F 0 "R?" V 10330 3900 50  0000 C CNN
F 1 "10k" V 10250 3900 50  0000 C CNN
F 2 "" V 10180 3900 50  0001 C CNN
F 3 "" H 10250 3900 50  0001 C CNN
	1    10250 3900
	0    1    1    0   
$EndComp
Text GLabel 10000 4100 0    60   Input ~ 0
DOORCHECK
NoConn ~ 10800 3900
Text Notes 9950 2500 2    60   ~ 0
LIMIT INPUTS
Text GLabel 6050 4150 2    60   Input ~ 0
Y-LIMIT
Text GLabel 6050 6150 2    60   Input ~ 0
Z-LIMIT
Text GLabel 6050 5850 2    60   Input ~ 0
X-LIMIT
Text GLabel 4150 4250 0    60   Input ~ 0
DOORCHECK
$Comp
L GND #PWR?
U 1 1 5B0FACC4
P 4200 7550
F 0 "#PWR?" H 4200 7300 50  0001 C CNN
F 1 "GND" H 4200 7400 50  0000 C CNN
F 2 "" H 4200 7550 50  0001 C CNN
F 3 "" H 4200 7550 50  0001 C CNN
	1    4200 7550
	1    0    0    -1  
$EndComp
$Comp
L +3.3V #PWR?
U 1 1 5B0FAD34
P 4200 3950
F 0 "#PWR?" H 4200 3800 50  0001 C CNN
F 1 "+3.3V" H 4200 4090 50  0000 C CNN
F 2 "" H 4200 3950 50  0001 C CNN
F 3 "" H 4200 3950 50  0001 C CNN
	1    4200 3950
	1    0    0    -1  
$EndComp
$Comp
L GND #PWR?
U 1 1 5B0FB7BD
P 6000 7500
F 0 "#PWR?" H 6000 7250 50  0001 C CNN
F 1 "GND" H 6000 7350 50  0000 C CNN
F 2 "" H 6000 7500 50  0001 C CNN
F 3 "" H 6000 7500 50  0001 C CNN
	1    6000 7500
	1    0    0    -1  
$EndComp
$Comp
L +3.3V #PWR?
U 1 1 5B0FB82D
P 6050 7450
F 0 "#PWR?" H 6050 7300 50  0001 C CNN
F 1 "+3.3V" H 6050 7590 50  0000 C CNN
F 2 "" H 6050 7450 50  0001 C CNN
F 3 "" H 6050 7450 50  0001 C CNN
	1    6050 7450
	1    0    0    -1  
$EndComp
$Comp
L +5V #PWR?
U 1 1 5B0FB97C
P 6850 5750
F 0 "#PWR?" H 6850 5600 50  0001 C CNN
F 1 "+5V" H 6850 5890 50  0000 C CNN
F 2 "" H 6850 5750 50  0001 C CNN
F 3 "" H 6850 5750 50  0001 C CNN
	1    6850 5750
	1    0    0    -1  
$EndComp
$Comp
L R R?
U 1 1 5B0FBC46
P 6600 5550
F 0 "R?" V 6500 5550 50  0000 C CNN
F 1 "1k" V 6600 5550 50  0000 C CNN
F 2 "" V 6530 5550 50  0001 C CNN
F 3 "" H 6600 5550 50  0001 C CNN
	1    6600 5550
	0    1    1    0   
$EndComp
$Comp
L +3.3V #PWR?
U 1 1 5B0FBD58
P 6850 5550
F 0 "#PWR?" H 6850 5400 50  0001 C CNN
F 1 "+3.3V" H 6850 5690 50  0000 C CNN
F 2 "" H 6850 5550 50  0001 C CNN
F 3 "" H 6850 5550 50  0001 C CNN
	1    6850 5550
	1    0    0    -1  
$EndComp
$Comp
L POLOLU_A4988 U?
U 1 1 5B0FE7C8
P 8000 3050
F 0 "U?" H 8000 3500 60  0000 C CNN
F 1 "POLOLU_A4988" V 8000 3050 50  0000 C CNN
F 2 "" H 8000 3050 60  0001 C CNN
F 3 "" H 8000 3050 60  0001 C CNN
	1    8000 3050
	-1   0    0    -1  
$EndComp
$Comp
L Conn_01x04_Male J?
U 1 1 5B0FE9B0
P 9000 3000
F 0 "J?" H 9000 3200 50  0000 C CNN
F 1 "Y-MOTOR" V 8950 2950 50  0000 C CNN
F 2 "" H 9000 3000 50  0001 C CNN
F 3 "" H 9000 3000 50  0001 C CNN
	1    9000 3000
	-1   0    0    -1  
$EndComp
$Comp
L POLOLU_A4988 U?
U 1 1 5B101355
P 8000 3950
F 0 "U?" H 8000 4400 60  0000 C CNN
F 1 "POLOLU_A4988" V 8000 3950 50  0000 C CNN
F 2 "" H 8000 3950 60  0001 C CNN
F 3 "" H 8000 3950 60  0001 C CNN
	1    8000 3950
	-1   0    0    -1  
$EndComp
$Comp
L POLOLU_A4988 U?
U 1 1 5B1014A4
P 8000 4850
F 0 "U?" H 8000 5300 60  0000 C CNN
F 1 "POLOLU_A4988" V 8000 4850 50  0000 C CNN
F 2 "" H 8000 4850 60  0001 C CNN
F 3 "" H 8000 4850 60  0001 C CNN
	1    8000 4850
	-1   0    0    -1  
$EndComp
$Comp
L Conn_01x04_Male J?
U 1 1 5B1014AA
P 9000 4800
F 0 "J?" H 9000 5000 50  0000 C CNN
F 1 "Z-MOTOR" V 8950 4750 50  0000 C CNN
F 2 "" H 9000 4800 50  0001 C CNN
F 3 "" H 9000 4800 50  0001 C CNN
	1    9000 4800
	-1   0    0    -1  
$EndComp
$Comp
L POLOLU_A4988 U?
U 1 1 5B10169C
P 8000 5750
F 0 "U?" H 8000 6200 60  0000 C CNN
F 1 "POLOLU_A4988" V 8000 5750 50  0000 C CNN
F 2 "" H 8000 5750 60  0001 C CNN
F 3 "" H 8000 5750 60  0001 C CNN
	1    8000 5750
	-1   0    0    -1  
$EndComp
$Comp
L Conn_01x04_Male J?
U 1 1 5B1016A2
P 9000 5700
F 0 "J?" H 9000 5900 50  0000 C CNN
F 1 "X-MOTOR" V 8950 5650 50  0000 C CNN
F 2 "" H 9000 5700 50  0001 C CNN
F 3 "" H 9000 5700 50  0001 C CNN
	1    9000 5700
	-1   0    0    -1  
$EndComp
$Comp
L +3.3V #PWR?
U 1 1 5B104E98
P 8750 2600
F 0 "#PWR?" H 8750 2450 50  0001 C CNN
F 1 "+3.3V" H 8750 2740 50  0000 C CNN
F 2 "" H 8750 2600 50  0001 C CNN
F 3 "" H 8750 2600 50  0001 C CNN
	1    8750 2600
	1    0    0    -1  
$EndComp
Text GLabel 8850 2700 2    60   Input ~ 0
VMOT
$Comp
L GND #PWR?
U 1 1 5B105B6E
P 8650 6200
F 0 "#PWR?" H 8650 5950 50  0001 C CNN
F 1 "GND" H 8650 6050 50  0000 C CNN
F 2 "" H 8650 6200 50  0001 C CNN
F 3 "" H 8650 6200 50  0001 C CNN
	1    8650 6200
	1    0    0    -1  
$EndComp
Text GLabel 7400 2700 0    60   Input ~ 0
DIRY
Text GLabel 7400 2800 0    60   Input ~ 0
STEPY
Text GLabel 7400 3600 0    60   Input ~ 0
DIRE
Text GLabel 7400 3700 0    60   Input ~ 0
STEPE
Text GLabel 7400 4500 0    60   Input ~ 0
DIRZ
Text GLabel 7400 4600 0    60   Input ~ 0
STEPZ
Text GLabel 7400 5400 0    60   Input ~ 0
DIRX
Text GLabel 7400 5500 0    60   Input ~ 0
STEPX
Text Notes 7100 2500 0    60   ~ 0
STEPPER MOTOR DRIVERS
$Comp
L GND #PWR?
U 1 1 5B109EAC
P 10050 6250
F 0 "#PWR?" H 10050 6000 50  0001 C CNN
F 1 "GND" H 10050 6100 50  0000 C CNN
F 2 "" H 10050 6250 50  0001 C CNN
F 3 "" H 10050 6250 50  0001 C CNN
	1    10050 6250
	1    0    0    -1  
$EndComp
NoConn ~ 10650 5100
$Comp
L +5V #PWR?
U 1 1 5B10A5A3
P 10800 5200
F 0 "#PWR?" H 10800 5050 50  0001 C CNN
F 1 "+5V" H 10800 5340 50  0000 C CNN
F 2 "" H 10800 5200 50  0001 C CNN
F 3 "" H 10800 5200 50  0001 C CNN
	1    10800 5200
	1    0    0    -1  
$EndComp
$Comp
L Q_NPN_BCE Q?
U 1 1 5B10AEB0
P 10250 5950
F 0 "Q?" H 10450 6000 50  0000 L CNN
F 1 "Q_NPN_BCE" H 10450 5900 50  0001 L CNN
F 2 "" H 10450 6050 50  0001 C CNN
F 3 "" H 10250 5950 50  0001 C CNN
	1    10250 5950
	-1   0    0    -1  
$EndComp
Text GLabel 10450 5950 2    60   Input ~ 0
LASER
Text GLabel 6050 4950 2    60   Input ~ 0
LASER
$Comp
L R R?
U 1 1 5B10C9AF
P 1200 3550
F 0 "R?" V 1280 3550 50  0000 C CNN
F 1 "100" V 1200 3550 50  0000 C CNN
F 2 "" V 1130 3550 50  0001 C CNN
F 3 "" H 1200 3550 50  0001 C CNN
	1    1200 3550
	0    1    1    0   
$EndComp
$Comp
L R R?
U 1 1 5B10CB78
P 1350 3750
F 0 "R?" V 1430 3750 50  0000 C CNN
F 1 "2k8" V 1350 3750 50  0000 C CNN
F 2 "" V 1280 3750 50  0001 C CNN
F 3 "" H 1350 3750 50  0001 C CNN
	1    1350 3750
	1    0    0    -1  
$EndComp
$Comp
L R R?
U 1 1 5B10CC3F
P 1550 3750
F 0 "R?" V 1630 3750 50  0000 C CNN
F 1 "2k8" V 1550 3750 50  0000 C CNN
F 2 "" V 1480 3750 50  0001 C CNN
F 3 "" H 1550 3750 50  0001 C CNN
	1    1550 3750
	1    0    0    -1  
$EndComp
$Comp
L R R?
U 1 1 5B10D17C
P 2750 5250
F 0 "R?" V 2830 5250 50  0000 C CNN
F 1 "2k" V 2750 5250 50  0000 C CNN
F 2 "" V 2680 5250 50  0001 C CNN
F 3 "" H 2750 5250 50  0001 C CNN
	1    2750 5250
	1    0    0    -1  
$EndComp
$Comp
L R R?
U 1 1 5B10D182
P 2750 4650
F 0 "R?" V 2830 4650 50  0000 C CNN
F 1 "4k7" V 2750 4650 50  0000 C CNN
F 2 "" V 2680 4650 50  0001 C CNN
F 3 "" H 2750 4650 50  0001 C CNN
	1    2750 4650
	1    0    0    -1  
$EndComp
$Comp
L R R?
U 1 1 5B10D188
P 3050 4650
F 0 "R?" V 3130 4650 50  0000 C CNN
F 1 "2k8" V 3050 4650 50  0000 C CNN
F 2 "" V 2980 4650 50  0001 C CNN
F 3 "" H 3050 4650 50  0001 C CNN
	1    3050 4650
	1    0    0    -1  
$EndComp
$Comp
L R R?
U 1 1 5B10D18E
P 3050 5250
F 0 "R?" V 3130 5250 50  0000 C CNN
F 1 "4k7" V 3050 5250 50  0000 C CNN
F 2 "" V 2980 5250 50  0001 C CNN
F 3 "" H 3050 5250 50  0001 C CNN
	1    3050 5250
	1    0    0    -1  
$EndComp
$Comp
L R R?
U 1 1 5B10D9EB
P 1350 3350
F 0 "R?" V 1430 3350 50  0000 C CNN
F 1 "4k7" V 1350 3350 50  0000 C CNN
F 2 "" V 1280 3350 50  0001 C CNN
F 3 "" H 1350 3350 50  0001 C CNN
	1    1350 3350
	1    0    0    -1  
$EndComp
$Comp
L R R?
U 1 1 5B10D9F1
P 1550 3350
F 0 "R?" V 1630 3350 50  0000 C CNN
F 1 "4k7" V 1550 3350 50  0000 C CNN
F 2 "" V 1480 3350 50  0001 C CNN
F 3 "" H 1550 3350 50  0001 C CNN
	1    1550 3350
	1    0    0    -1  
$EndComp
$Comp
L R R?
U 1 1 5B10D9F7
P 1700 3200
F 0 "R?" V 1780 3200 50  0000 C CNN
F 1 "100k" V 1700 3200 50  0000 C CNN
F 2 "" V 1630 3200 50  0001 C CNN
F 3 "" H 1700 3200 50  0001 C CNN
	1    1700 3200
	0    1    1    0   
$EndComp
$Comp
L R R?
U 1 1 5B10DBAD
P 1150 3200
F 0 "R?" V 1230 3200 50  0000 C CNN
F 1 "100k" V 1150 3200 50  0000 C CNN
F 2 "" V 1080 3200 50  0001 C CNN
F 3 "" H 1150 3200 50  0001 C CNN
	1    1150 3200
	0    1    1    0   
$EndComp
$Comp
L R R?
U 1 1 5B10DD6C
P 2900 4650
F 0 "R?" V 2980 4650 50  0000 C CNN
F 1 "4k7" V 2900 4650 50  0000 C CNN
F 2 "" V 2830 4650 50  0001 C CNN
F 3 "" H 2900 4650 50  0001 C CNN
	1    2900 4650
	1    0    0    -1  
$EndComp
$Comp
L R R?
U 1 1 5B10DEDF
P 2900 5250
F 0 "R?" V 2980 5250 50  0000 C CNN
F 1 "2kΩ" V 2900 5250 50  0000 C CNN
F 2 "" V 2830 5250 50  0001 C CNN
F 3 "" H 2900 5250 50  0001 C CNN
	1    2900 5250
	1    0    0    -1  
$EndComp
$Comp
L GND #PWR?
U 1 1 5B10E780
P 1850 3300
F 0 "#PWR?" H 1850 3050 50  0001 C CNN
F 1 "GND" H 1850 3150 50  0000 C CNN
F 2 "" H 1850 3300 50  0001 C CNN
F 3 "" H 1850 3300 50  0001 C CNN
	1    1850 3300
	1    0    0    -1  
$EndComp
$Comp
L +3.3V #PWR?
U 1 1 5B10E8A7
P 3050 4400
F 0 "#PWR?" H 3050 4250 50  0001 C CNN
F 1 "+3.3V" H 3050 4540 50  0000 C CNN
F 2 "" H 3050 4400 50  0001 C CNN
F 3 "" H 3050 4400 50  0001 C CNN
	1    3050 4400
	1    0    0    -1  
$EndComp
$Comp
L GND #PWR?
U 1 1 5B10EFA0
P 1050 3600
F 0 "#PWR?" H 1050 3350 50  0001 C CNN
F 1 "GND" H 1050 3450 50  0000 C CNN
F 2 "" H 1050 3600 50  0001 C CNN
F 3 "" H 1050 3600 50  0001 C CNN
	1    1050 3600
	1    0    0    -1  
$EndComp
$Comp
L LM358 U?
U 1 1 5B11060B
P 1450 2900
F 0 "U?" H 1450 3100 50  0000 L CNN
F 1 "LM358" H 1450 2700 50  0000 L CNN
F 2 "" H 1450 2900 50  0001 C CNN
F 3 "" H 1450 2900 50  0001 C CNN
	1    1450 2900
	0    1    -1   0   
$EndComp
$Comp
L GND #PWR?
U 1 1 5B114487
P 3050 5500
F 0 "#PWR?" H 3050 5250 50  0001 C CNN
F 1 "GND" H 3050 5350 50  0000 C CNN
F 2 "" H 3050 5500 50  0001 C CNN
F 3 "" H 3050 5500 50  0001 C CNN
	1    3050 5500
	1    0    0    -1  
$EndComp
$Comp
L +3.3V #PWR?
U 1 1 5B114CB9
P 1850 3900
F 0 "#PWR?" H 1850 3750 50  0001 C CNN
F 1 "+3.3V" H 1850 4040 50  0000 C CNN
F 2 "" H 1850 3900 50  0001 C CNN
F 3 "" H 1850 3900 50  0001 C CNN
	1    1850 3900
	1    0    0    -1  
$EndComp
Text GLabel 900  3450 3    60   Input ~ 0
E-THERM
Text GLabel 4150 4750 0    60   Input ~ 0
E-THERM
Text GLabel 10850 5300 2    60   Input ~ 0
TSENS
Text GLabel 1650 3550 2    60   Input ~ 0
TSENS
$Comp
L GND #PWR?
U 1 1 5B120AF5
P 1000 3000
F 0 "#PWR?" H 1000 2750 50  0001 C CNN
F 1 "GND" H 1000 2850 50  0000 C CNN
F 2 "" H 1000 3000 50  0001 C CNN
F 3 "" H 1000 3000 50  0001 C CNN
	1    1000 3000
	1    0    0    -1  
$EndComp
$Comp
L +5V #PWR?
U 1 1 5B121A98
P 1750 2750
F 0 "#PWR?" H 1750 2600 50  0001 C CNN
F 1 "+5V" H 1750 2890 50  0000 C CNN
F 2 "" H 1750 2750 50  0001 C CNN
F 3 "" H 1750 2750 50  0001 C CNN
	1    1750 2750
	1    0    0    -1  
$EndComp
Text Notes 1700 2500 2    60   ~ 0
MEASUREMENT AMPLIFIER
Text Notes 10100 4550 2    60   ~ 0
EXTRUDER PORT
Text GLabel 6050 4450 2    60   Input ~ 0
DIRY
Text GLabel 6050 4350 2    60   Input ~ 0
STEPY
Text GLabel 6050 6450 2    60   Input ~ 0
DIRZ
Text GLabel 6050 6350 2    60   Input ~ 0
STEPZ
Text GLabel 4150 5750 0    60   Input ~ 0
DIRX
Text GLabel 4150 5850 0    60   Input ~ 0
STEPX
Text GLabel 4150 7350 0    60   Input ~ 0
DIRE
Text GLabel 4150 7450 0    60   Input ~ 0
STEPE
NoConn ~ 4250 5450
$Comp
L R R?
U 1 1 5B12C264
P 2650 7350
F 0 "R?" V 2730 7350 50  0000 C CNN
F 1 "10k" V 2650 7350 50  0000 C CNN
F 2 "" V 2580 7350 50  0001 C CNN
F 3 "" H 2650 7350 50  0001 C CNN
	1    2650 7350
	0    1    1    0   
$EndComp
$Comp
L GND #PWR?
U 1 1 5B12C309
P 2900 7450
F 0 "#PWR?" H 2900 7200 50  0001 C CNN
F 1 "GND" H 2900 7300 50  0000 C CNN
F 2 "" H 2900 7450 50  0001 C CNN
F 3 "" H 2900 7450 50  0001 C CNN
	1    2900 7450
	1    0    0    -1  
$EndComp
$Comp
L R R?
U 1 1 5B12CF2C
P 3100 7250
F 0 "R?" V 3180 7250 50  0000 C CNN
F 1 "10k" V 3100 7250 50  0000 C CNN
F 2 "" V 3030 7250 50  0001 C CNN
F 3 "" H 3100 7250 50  0001 C CNN
	1    3100 7250
	0    1    1    0   
$EndComp
$Comp
L +3.3V #PWR?
U 1 1 5B12D9F7
P 3400 6350
F 0 "#PWR?" H 3400 6200 50  0001 C CNN
F 1 "+3.3V" H 3400 6490 50  0000 C CNN
F 2 "" H 3400 6350 50  0001 C CNN
F 3 "" H 3400 6350 50  0001 C CNN
	1    3400 6350
	1    0    0    -1  
$EndComp
$Comp
L C C?
U 1 1 5B12E66B
P 3150 6850
F 0 "C?" H 3175 6950 50  0000 L CNN
F 1 "100nF" H 3175 6750 50  0000 L CNN
F 2 "" H 3188 6700 50  0001 C CNN
F 3 "" H 3150 6850 50  0001 C CNN
	1    3150 6850
	0    1    1    0   
$EndComp
$Comp
L 74HC00 U?
U 1 1 5B168F32
P 1200 5550
F 0 "U?" H 1200 5600 50  0000 C CNN
F 1 "74HC00" H 1200 5450 50  0000 C CNN
F 2 "" H 1200 5550 50  0001 C CNN
F 3 "" H 1200 5550 50  0001 C CNN
	1    1200 5550
	0    -1   -1   0   
$EndComp
$Comp
L Conn_01x05_Male J?
U 1 1 5B16B532
P 1500 4350
F 0 "J?" H 1500 4650 50  0000 C CNN
F 1 "INIT&LED" V 1450 4350 50  0000 C CNN
F 2 "" H 1500 4350 50  0001 C CNN
F 3 "" H 1500 4350 50  0001 C CNN
	1    1500 4350
	0    -1   1    0   
$EndComp
$Comp
L R R?
U 1 1 5B16B725
P 1300 4800
F 0 "R?" V 1300 4600 50  0000 C CNN
F 1 "200" V 1300 4800 50  0000 C CNN
F 2 "" V 1230 4800 50  0001 C CNN
F 3 "" H 1300 4800 50  0001 C CNN
	1    1300 4800
	1    0    0    -1  
$EndComp
$Comp
L R R?
U 1 1 5B16BC4E
P 1400 4800
F 0 "R?" V 1400 4600 50  0000 C CNN
F 1 "1k" V 1400 4800 50  0000 C CNN
F 2 "" V 1330 4800 50  0001 C CNN
F 3 "" H 1400 4800 50  0001 C CNN
	1    1400 4800
	1    0    0    -1  
$EndComp
$Comp
L R R?
U 1 1 5B16BDAB
P 1500 4800
F 0 "R?" V 1500 4600 50  0000 C CNN
F 1 "200" V 1500 4800 50  0000 C CNN
F 2 "" V 1430 4800 50  0001 C CNN
F 3 "" H 1500 4800 50  0001 C CNN
	1    1500 4800
	1    0    0    -1  
$EndComp
$Comp
L R R?
U 1 1 5B16BE7C
P 1600 4800
F 0 "R?" V 1600 4600 50  0000 C CNN
F 1 "100" V 1600 4800 50  0000 C CNN
F 2 "" V 1530 4800 50  0001 C CNN
F 3 "" H 1600 4800 50  0001 C CNN
	1    1600 4800
	1    0    0    -1  
$EndComp
$Comp
L +3.3V #PWR?
U 1 1 5B16CAC8
P 950 4450
F 0 "#PWR?" H 950 4300 50  0001 C CNN
F 1 "+3.3V" H 950 4590 50  0000 C CNN
F 2 "" H 950 4450 50  0001 C CNN
F 3 "" H 950 4450 50  0001 C CNN
	1    950  4450
	1    0    0    -1  
$EndComp
$Comp
L C C?
U 1 1 5B16D6CB
P 1850 4800
F 0 "C?" H 1875 4900 50  0000 L CNN
F 1 "100nF" H 1875 4700 50  0000 L CNN
F 2 "" H 1888 4650 50  0001 C CNN
F 3 "" H 1850 4800 50  0001 C CNN
	1    1850 4800
	1    0    0    -1  
$EndComp
$Comp
L R R?
U 1 1 5B16E09B
P 1700 4800
F 0 "R?" V 1700 4600 50  0000 C CNN
F 1 "10k" V 1700 4800 50  0000 C CNN
F 2 "" V 1630 4800 50  0001 C CNN
F 3 "" H 1700 4800 50  0001 C CNN
	1    1700 4800
	1    0    0    -1  
$EndComp
Text GLabel 1600 5250 3    60   Input ~ 0
BUTTON
Text GLabel 6050 6550 2    60   Input ~ 0
BUTTON
Text GLabel 8050 1350 2    60   Input ~ 0
VMOT
$Comp
L C C?
U 1 1 5B175C43
P 3950 1200
F 0 "C?" H 3975 1300 50  0000 L CNN
F 1 "100nF" H 3975 1100 50  0000 L CNN
F 2 "" H 3988 1050 50  0001 C CNN
F 3 "" H 3950 1200 50  0001 C CNN
	1    3950 1200
	1    0    0    -1  
$EndComp
Text GLabel 1600 5950 1    60   Input ~ 0
LED
Wire Wire Line
	2950 1250 3200 1250
Wire Wire Line
	2950 1450 3200 1450
Wire Wire Line
	3200 1350 3100 1350
Wire Wire Line
	3200 1550 3100 1550
Wire Wire Line
	3100 1550 3100 1950
Wire Wire Line
	3700 1800 3700 1950
Connection ~ 4300 1950
Connection ~ 4700 1950
Connection ~ 3700 1500
Wire Wire Line
	3100 1950 6750 1950
Wire Wire Line
	5050 1950 5050 1900
Wire Wire Line
	5550 1950 5550 1900
Connection ~ 5050 1950
Wire Wire Line
	5550 950  5550 1600
Wire Wire Line
	5450 1500 6050 1500
Wire Wire Line
	5150 1500 5050 1500
Wire Wire Line
	5050 1500 5050 1600
Connection ~ 5550 1500
Connection ~ 5550 1050
Wire Wire Line
	3700 950  3700 1500
Wire Wire Line
	3700 1500 3950 1500
Connection ~ 5950 1500
Wire Wire Line
	6650 1500 6750 1500
Wire Wire Line
	6750 950  6750 1600
Connection ~ 6750 1500
Wire Wire Line
	3350 2950 3250 2950
Wire Wire Line
	2950 2950 2950 2850
Wire Wire Line
	3350 3150 3250 3150
Wire Wire Line
	2850 3350 2950 3350
Wire Wire Line
	3250 3550 3250 3650
Wire Wire Line
	4150 4350 4250 4350
Wire Wire Line
	7350 1050 7250 1050
Wire Wire Line
	7250 950  7250 1450
Wire Wire Line
	7250 1450 7350 1450
Wire Wire Line
	7350 1850 7250 1850
Connection ~ 7250 1050
Wire Wire Line
	4250 5250 4150 5250
Wire Wire Line
	10650 5500 10650 5550
Wire Wire Line
	10650 5550 10150 5550
Wire Wire Line
	10150 5550 10150 5500
Wire Wire Line
	10650 5400 10650 5450
Wire Wire Line
	10650 5450 10150 5450
Wire Wire Line
	10150 5450 10150 5400
Wire Wire Line
	10150 5400 9950 5400
Wire Wire Line
	10150 5500 9950 5500
Wire Wire Line
	10650 950  10650 1350
Connection ~ 10650 1250
Connection ~ 10650 1150
Connection ~ 10650 1050
Wire Wire Line
	10650 2150 10650 1450
Connection ~ 10650 1550
Connection ~ 10650 1650
Connection ~ 10650 1750
Wire Wire Line
	1200 1250 1700 1250
Wire Wire Line
	1700 1250 1700 1300
Wire Wire Line
	1200 1350 1500 1350
Wire Wire Line
	1500 1350 1500 1900
Wire Wire Line
	1500 1900 1700 1900
Wire Wire Line
	1850 1900 2000 1900
Wire Wire Line
	1200 1050 1300 1050
Wire Wire Line
	1850 1050 1850 1300
Wire Wire Line
	1600 1050 2000 1050
Connection ~ 1850 1050
Connection ~ 1250 1250
Connection ~ 1350 1350
Wire Wire Line
	5950 5450 6050 5450
Wire Wire Line
	6050 5650 5950 5650
Wire Wire Line
	1250 1450 1250 1250
Wire Wire Line
	1350 1450 1350 1350
Wire Wire Line
	1250 1750 1250 1850
Wire Wire Line
	1350 1750 1350 1850
Wire Notes Line
	500  2350 11200 2350
Wire Notes Line
	2350 500  2350 6200
Wire Notes Line
	500  500  11200 500 
Wire Notes Line
	500  500  500  6200
Wire Wire Line
	3700 1050 3100 1050
Connection ~ 3700 1050
Wire Wire Line
	3100 1050 3100 1350
Connection ~ 3700 1950
Wire Wire Line
	6750 1950 6750 1900
Wire Wire Line
	5950 1950 5950 1900
Connection ~ 5950 1950
Connection ~ 5550 1950
Wire Wire Line
	6350 1800 6350 1950
Connection ~ 6350 1950
Wire Notes Line
	7000 500  7000 6500
Wire Wire Line
	3950 1050 5550 1050
Wire Wire Line
	5950 1500 5950 1600
Wire Wire Line
	4150 5150 4250 5150
Wire Wire Line
	9150 1400 9150 2150
Wire Wire Line
	9050 1200 9150 1200
Wire Wire Line
	10400 2150 10400 2050
Wire Wire Line
	10400 1550 10400 1650
Connection ~ 10650 1850
Connection ~ 7250 1850
Wire Wire Line
	7250 1750 7250 2150
Wire Wire Line
	7250 2150 7500 2150
Wire Wire Line
	7950 2150 7800 2150
Connection ~ 10250 950 
Wire Wire Line
	9750 1400 9800 1400
Wire Wire Line
	9800 1400 9800 1450
Wire Wire Line
	9800 1750 9800 1850
Wire Wire Line
	9750 950  9750 1200
Connection ~ 9750 950 
Wire Wire Line
	8300 1850 7950 1850
Wire Wire Line
	7950 1850 7950 2150
Wire Wire Line
	8500 1450 8500 1550
Wire Wire Line
	8700 1850 8800 1850
Connection ~ 8800 1850
Connection ~ 10400 2150
Connection ~ 9150 2150
Wire Wire Line
	8800 2150 10650 2150
Wire Wire Line
	7950 950  10650 950 
Wire Wire Line
	10250 1050 10250 950 
Wire Wire Line
	8800 1550 8800 2150
Wire Notes Line
	11200 500  11200 6500
Wire Wire Line
	10650 2800 10800 2800
Wire Wire Line
	10400 2900 10800 2900
Connection ~ 10750 2800
Connection ~ 10700 2700
Wire Wire Line
	10350 2800 10100 2800
Wire Wire Line
	10100 2700 10100 2900
Connection ~ 10100 2800
Wire Wire Line
	10400 2700 10800 2700
Wire Wire Line
	10100 2900 10000 2900
Wire Wire Line
	10650 3200 10800 3200
Wire Wire Line
	10400 3300 10800 3300
Connection ~ 10750 3200
Connection ~ 10700 3100
Wire Wire Line
	10350 3200 10100 3200
Wire Wire Line
	10100 3100 10100 3300
Connection ~ 10100 3200
Wire Wire Line
	10400 3100 10800 3100
Wire Wire Line
	10100 3300 10000 3300
Wire Wire Line
	10650 3600 10800 3600
Wire Wire Line
	10400 3700 10800 3700
Connection ~ 10750 3600
Connection ~ 10700 3500
Wire Wire Line
	10350 3600 10100 3600
Wire Wire Line
	10100 3500 10100 3700
Connection ~ 10100 3600
Wire Wire Line
	10400 3500 10800 3500
Wire Wire Line
	10100 3700 10000 3700
Wire Wire Line
	10650 4000 10800 4000
Wire Wire Line
	10400 4100 10800 4100
Connection ~ 10750 4000
Connection ~ 10700 3900
Wire Wire Line
	10350 4000 10100 4000
Wire Wire Line
	10100 3900 10100 4100
Connection ~ 10100 4000
Wire Wire Line
	10100 4100 10000 4100
Wire Wire Line
	10700 3900 10400 3900
Wire Wire Line
	10750 2800 10750 4200
Wire Wire Line
	10700 2600 10700 3900
Wire Notes Line
	9300 2350 9300 6500
Wire Notes Line
	11200 4400 9300 4400
Wire Wire Line
	6050 4150 5950 4150
Wire Wire Line
	6050 5850 5950 5850
Wire Wire Line
	6050 6150 5950 6150
Wire Wire Line
	4150 4250 4250 4250
Wire Wire Line
	4250 3950 4200 3950
Wire Wire Line
	4250 4050 4200 4050
Wire Wire Line
	4200 4050 4200 7550
Wire Wire Line
	4250 6350 4200 6350
Connection ~ 4200 6350
Wire Wire Line
	4250 6450 4200 6450
Connection ~ 4200 6450
Wire Wire Line
	5950 6050 6000 6050
Wire Wire Line
	6000 6050 6000 7500
Wire Wire Line
	5950 6750 6000 6750
Connection ~ 6000 6750
Wire Wire Line
	5950 7050 6000 7050
Connection ~ 6000 7050
Wire Wire Line
	5950 7350 6000 7350
Connection ~ 6000 7350
Wire Wire Line
	5950 7450 6050 7450
Wire Wire Line
	5950 5750 6850 5750
Wire Wire Line
	6850 5550 6750 5550
Wire Wire Line
	6450 5550 5950 5550
Wire Wire Line
	8650 2700 8600 2700
Wire Wire Line
	8650 3300 8600 3300
Connection ~ 8650 3300
Wire Wire Line
	8600 3400 8700 3400
Connection ~ 8700 3400
Wire Wire Line
	8600 2800 8750 2800
Connection ~ 8750 2800
Wire Wire Line
	8650 3600 8600 3600
Wire Wire Line
	8650 4200 8600 4200
Connection ~ 8650 3600
Connection ~ 8650 4200
Wire Wire Line
	8700 4300 8600 4300
Connection ~ 8700 4300
Wire Wire Line
	8750 3700 8600 3700
Connection ~ 8750 3700
Wire Wire Line
	8650 4500 8600 4500
Wire Wire Line
	8650 5100 8600 5100
Connection ~ 8650 4500
Connection ~ 8650 5100
Wire Wire Line
	8700 5200 8600 5200
Connection ~ 8700 5200
Wire Wire Line
	8750 4600 8600 4600
Connection ~ 8750 4600
Wire Wire Line
	8650 5400 8600 5400
Wire Wire Line
	8650 6000 8600 6000
Connection ~ 8650 5400
Connection ~ 8650 6000
Wire Wire Line
	8700 6100 8600 6100
Wire Wire Line
	8750 5500 8600 5500
Wire Wire Line
	8600 2900 8800 2900
Wire Wire Line
	8600 3000 8800 3000
Wire Wire Line
	8600 3100 8800 3100
Wire Wire Line
	8800 3200 8600 3200
Wire Wire Line
	8600 3800 9250 3800
Wire Wire Line
	8600 3900 9200 3900
Wire Wire Line
	8600 4000 9150 4000
Wire Wire Line
	8600 4100 9100 4100
Wire Wire Line
	8800 4700 8600 4700
Wire Wire Line
	8600 4800 8800 4800
Wire Wire Line
	8800 4900 8600 4900
Wire Wire Line
	8600 5000 8800 5000
Wire Wire Line
	8600 5600 8800 5600
Wire Wire Line
	8800 5700 8600 5700
Wire Wire Line
	8600 5800 8800 5800
Wire Wire Line
	8800 5900 8600 5900
Wire Wire Line
	8850 2700 8700 2700
Wire Wire Line
	8650 2700 8650 6200
Wire Wire Line
	8700 2700 8700 6100
Wire Wire Line
	8750 2600 8750 5500
Wire Wire Line
	9250 3800 9250 5000
Wire Wire Line
	9250 5000 10150 5000
Wire Wire Line
	9150 4000 9150 4900
Wire Wire Line
	9150 4900 10150 4900
Wire Wire Line
	9100 4100 9100 4700
Wire Wire Line
	9100 4700 10700 4700
Wire Wire Line
	10700 4700 10700 4900
Wire Wire Line
	10700 4900 10650 4900
Wire Wire Line
	9200 3900 9200 4600
Wire Wire Line
	9200 4600 10800 4600
Wire Wire Line
	10800 4600 10800 5000
Wire Wire Line
	10800 5000 10650 5000
Wire Notes Line
	11200 6500 7000 6500
Wire Wire Line
	10650 5200 10800 5200
Wire Wire Line
	10800 5200 10800 5600
Wire Wire Line
	10800 5600 10650 5600
Wire Wire Line
	10050 5100 10050 6250
Wire Wire Line
	10050 5100 10150 5100
Wire Wire Line
	10150 5200 10050 5200
Connection ~ 10050 5200
Wire Wire Line
	6050 4950 5950 4950
Wire Wire Line
	10150 5300 10050 5300
Connection ~ 10050 5300
Wire Wire Line
	1550 3500 1550 3600
Wire Wire Line
	1350 3500 1350 3600
Wire Wire Line
	1850 3200 1850 3300
Wire Wire Line
	3050 4800 3050 5100
Wire Wire Line
	1450 2600 900  2600
Wire Wire Line
	900  2600 900  3450
Wire Wire Line
	900  3200 1000 3200
Wire Wire Line
	1650 3550 1550 3550
Connection ~ 1550 3550
Connection ~ 900  3200
Wire Wire Line
	2750 4800 2750 5100
Wire Wire Line
	4250 5050 2750 5050
Connection ~ 2750 5050
Wire Wire Line
	4250 4850 3050 4850
Connection ~ 3050 4850
Wire Wire Line
	2900 4800 2900 5100
Wire Wire Line
	4250 4950 2900 4950
Connection ~ 2900 4950
Wire Wire Line
	1050 3600 1050 3550
Connection ~ 1350 3550
Wire Wire Line
	1850 3950 1850 3900
Wire Wire Line
	1350 3950 1850 3950
Wire Wire Line
	1350 3950 1350 3900
Wire Wire Line
	1550 3950 1550 3900
Connection ~ 1550 3950
Wire Wire Line
	3050 4400 3050 4500
Wire Wire Line
	3050 5400 3050 5500
Wire Wire Line
	2750 4450 3050 4450
Wire Wire Line
	2750 4450 2750 4500
Connection ~ 3050 4450
Wire Wire Line
	2750 5450 3050 5450
Wire Wire Line
	2750 5450 2750 5400
Connection ~ 3050 5450
Wire Wire Line
	2900 5450 2900 5400
Connection ~ 2900 5450
Wire Wire Line
	2900 4450 2900 4500
Connection ~ 2900 4450
Wire Wire Line
	4250 4750 4150 4750
Wire Wire Line
	10850 5300 10650 5300
Wire Wire Line
	1300 3200 1350 3200
Wire Wire Line
	1150 3000 1000 3000
Wire Wire Line
	1750 3000 1750 2750
Wire Notes Line
	500  4050 4050 4050
Wire Wire Line
	6050 6350 5950 6350
Wire Wire Line
	5950 6450 6050 6450
Wire Wire Line
	4250 7450 4150 7450
Wire Wire Line
	4150 7350 4250 7350
Wire Wire Line
	4250 5850 4150 5850
Wire Wire Line
	4150 5750 4250 5750
Wire Wire Line
	6050 4350 5950 4350
Wire Wire Line
	5950 4450 6050 4450
Wire Wire Line
	2350 6950 2500 6950
Wire Wire Line
	2500 6950 2500 6550
Wire Wire Line
	2500 6550 4250 6550
Wire Wire Line
	4250 6650 2600 6650
Wire Wire Line
	2350 7250 2950 7250
Wire Wire Line
	2350 7150 3750 7150
Wire Wire Line
	3750 7150 3750 6850
Wire Wire Line
	3750 6850 4250 6850
Wire Wire Line
	2350 6750 4250 6750
Wire Wire Line
	2600 6650 2600 7250
Connection ~ 2600 7250
Wire Wire Line
	3400 7250 3250 7250
Wire Wire Line
	3400 6350 3400 7250
Wire Wire Line
	2350 7350 2500 7350
Wire Wire Line
	2900 7350 2800 7350
Wire Wire Line
	2900 6450 2900 7450
Wire Wire Line
	2350 6850 3000 6850
Connection ~ 2900 7350
Wire Wire Line
	2350 7050 3400 7050
Connection ~ 3400 7050
Connection ~ 2900 6850
Wire Wire Line
	3300 6850 3400 6850
Connection ~ 3400 6850
Wire Wire Line
	1300 4550 1300 4650
Wire Wire Line
	1500 4650 1500 4550
Wire Wire Line
	1400 4550 1400 4650
Wire Wire Line
	950  4600 1700 4600
Connection ~ 1400 4600
Wire Wire Line
	1600 4650 1600 4550
Wire Wire Line
	1700 4600 1700 4650
Wire Wire Line
	1600 4950 1600 5250
Wire Wire Line
	1600 5150 1850 5150
Wire Wire Line
	1850 5150 1850 4950
Wire Wire Line
	1700 4950 1700 5150
Connection ~ 1700 5150
Wire Wire Line
	6050 6550 5950 6550
Connection ~ 1600 5150
Wire Wire Line
	1500 4950 1500 6150
Wire Wire Line
	1400 4950 1400 5150
Wire Wire Line
	1400 5150 1500 5150
Connection ~ 1500 5150
Wire Wire Line
	7950 1350 8050 1350
Wire Wire Line
	10150 5600 10150 5750
Wire Wire Line
	10150 6150 10050 6150
Connection ~ 10050 6150
Wire Wire Line
	1200 4950 1300 4950
Connection ~ 4500 1050
Wire Wire Line
	3950 1350 3950 1950
Connection ~ 3950 1950
Wire Wire Line
	1300 6150 1600 6150
Connection ~ 1500 6150
Wire Wire Line
	950  6150 1100 6150
Wire Wire Line
	950  4450 950  6150
Connection ~ 950  4600
Wire Wire Line
	1700 4550 2100 4550
Wire Wire Line
	1850 4550 1850 4650
Connection ~ 1850 4550
$Comp
L GND #PWR?
U 1 1 5B179C23
P 2100 4650
F 0 "#PWR?" H 2100 4400 50  0001 C CNN
F 1 "GND" H 2100 4500 50  0000 C CNN
F 2 "" H 2100 4650 50  0001 C CNN
F 3 "" H 2100 4650 50  0001 C CNN
	1    2100 4650
	1    0    0    -1  
$EndComp
Wire Wire Line
	2100 4550 2100 4650
Wire Notes Line
	500  6200 2350 6200
Text Notes 550  4200 0    60   ~ 0
STATUS LED AND INIT SWITCH HEADER
Wire Notes Line
	4050 4050 4050 2350
Text Notes 2400 2500 0    60   ~ 0
BEEPER CIRCUIT
$Comp
L R R?
U 1 1 5B17DE31
P 2600 6450
F 0 "R?" V 2500 6450 50  0000 C CNN
F 1 "10k" V 2600 6450 50  0000 C CNN
F 2 "" V 2530 6450 50  0001 C CNN
F 3 "" H 2600 6450 50  0001 C CNN
	1    2600 6450
	0    1    1    0   
$EndComp
Wire Wire Line
	2350 6650 2400 6650
Wire Wire Line
	2400 6650 2400 6450
Wire Wire Line
	2400 6450 2450 6450
Wire Wire Line
	2750 6450 2900 6450
Wire Wire Line
	1600 6150 1600 5950
$EndSCHEMATC
